ESS 330 - Lab 8: Machine Learning – CSU ESS 330 lab3
…
The following objects are masked from 'package:tidyr':

    expand, pack, unpack

Loaded glmnet 4.1-8

my.grid <- grid_space_filling(
  dials,
  size = 25
)

my.grid

# A tibble: 25 × 2
    penalty mixture
      <dbl>   <dbl>
 1 1   e-10  0.604 
 2 2.61e-10  0.327 
 3 6.81e-10  0.842 
 4 1.78e- 9  0.129 
 5 4.64e- 9  0.485 
 6 1.21e- 8  0.683 
 7 3.16e- 8  0.921 
 8 8.25e- 8  0.288 
 9 2.15e- 7  0.0896
10 5.62e- 7  0.525 
# ℹ 15 more rows
…
The model maintains consistent performance across a range of regularization strengths but experiences a notable decline when the penalty becomes very small. This indicates that regularization is crucial for maintaining stability and accuracy, although the specific form of regularization has minimal impact on performance in this scenario.

3. Check Skill of Tuned Model

collect_metrics(model_params)

# A tibble: 75 × 8
         penalty mixture .metric .estimator   mean     n std_err .config        
           <dbl>   <dbl> <chr>   <chr>       <dbl> <int>   <dbl> <chr>          
 1 0.000464       0.05   mae     standard   0.938     10  0.0189 Preprocessor1_…
 2 0.000464       0.05   rmse    standard   1.22      10  0.0276 Preprocessor1_…
 3 0.000464       0.05   rsq     standard   0.0986    10  0.0293 Preprocessor1_…
 4 0.000000215    0.0896 mae     standard   0.938     10  0.0189 Preprocessor1_…
 5 0.000000215    0.0896 rmse    standard   1.22      10  0.0276 Preprocessor1_…
 6 0.000000215    0.0896 rsq     standard   0.0986    10  0.0293 Preprocessor1_…
 7 0.00000000178  0.129  mae     standard   0.938     10  0.0189 Preprocessor1_…
 8 0.00000000178  0.129  rmse    standard   1.22      10  0.0276 Preprocessor1_…
 9 0.00000000178  0.129  rsq     standard   0.0987    10  0.0294 Preprocessor1_…
10 0.0562         0.169  mae     standard   0.935     10  0.0191 Preprocessor1_…
# ℹ 65 more rows
…
final_fit <- fit(finalized_workflow, data = camels_training)

final_res <- last_fit(finalized_workflow, split = camels_split)

collect_metrics(final_res)

# A tibble: 2 × 4
  .metric .estimator .estimate .config             
  <chr>   <chr>          <dbl> <chr>               
1 rmse    standard      1.20   Preprocessor1_Model1
2 rsq     standard      0.0587 Preprocessor1_Model1

collect_predictions(final_res)

# A tibble: 104 × 5
     .pred id                .row logQmean .config             
     <dbl> <chr>            <int>    <dbl> <chr>               
 1 -0.432  train/test split     1  0.776   Preprocessor1_Model1
 2 -0.122  train/test split     4  0.878   Preprocessor1_Model1
 3 -0.249  train/test split     7  0.601   Preprocessor1_Model1
 4 -0.357  train/test split    16  0.608   Preprocessor1_Model1
 5 -0.261  train/test split    29  0.586   Preprocessor1_Model1
 6 -0.251  train/test split    31  0.642   Preprocessor1_Model1
 7 -0.0956 train/test split    36  0.266   Preprocessor1_Model1
 8 -0.0779 train/test split    44 -0.00956 Preprocessor1_Model1
 9 -0.0942 train/test split    45 -0.00340 Preprocessor1_Model1
10 -0.0974 train/test split    46  0.132   Preprocessor1_Model1
# ℹ 94 more rows
…
